{
  "type": "service_account",
  "project_id": "coccan",
  "private_key_id": "b15c52cc0a1a1dffb7e521805c77c014937ace8a",
  "private_key": "-----BEGIN PRIVATE KEY-----\nMIIEvgIBADANBgkqhkiG9w0BAQEFAASCBKgwggSkAgEAAoIBAQDL2tw3UgsCkcIp\nA1LrDCiHg2hkPfv3pjAYqsXmI/7n0T4H0vvdfuSusP059JKLONnOpnderq6q+O2N\nQjOa2XLVYbdwSyPWBKahh8Oqo2cO+BE2XN2tB7bGHh1rjLawWz6CANrtPPsvqqgz\nWLMuXr946tvaA+ivf+G9cDiaDDhO6Y67SyFFG9EdkDC+TLEuY3uDI3SHFg7A/lVV\n4qrSPmjP54Ys/LKFDXwAv4dZsUSeTWglrCB21wX0hTCNpGsByQq+NFQDWHHWHzA0\n3W1PjzpDly9NozU0g1dkB68ltmray+va3Hi59quRM0Xb1IzNVUwZA7FBG6ZamGCB\nOf2XoecbAgMBAAECggEAHn9rEWkCy1WceJ+jWMAu6BHZcksbq8cpzDxFndKmIMRb\nGrc5MGqlh8UO0rbWSGHZpA2fhNjED5bCOK8+IofZouFwR3/WUqnLdsBlnjJoCVia\nKp87bYGJRJveHD2nBJICCK0GvmtbIPHPzC6++nb4/6a9/CCNlS6f9Rlu6Q0JojRm\nkWF7fHiSc0HjbDolJflDyA79MQxubp1gNjESNVjZGGUfZOh97EEOvlcC1Y9zXP9P\nwg58Mhv1okXsyH19Io0GMnXZQBTrid0KSPcQm1VUM70hWEMeZOqT0daS8tu+cmJL\nbjbIoz4S3OsbBRWRnNkSclkKKVbtateQci9jWSY/YQKBgQDncp+8Inea0Dpj1iFM\nPplB0qc55W9QzN5wOQNAT/0J20XME7eI46Kl3ZXntyF0grvu/qAmbrocps1g5PeO\n98toud2oDm/kNywdNBode6LBp0t9pPAQ6Z50vFwrtNX6V6MrUBDG6YzYQLaQR3kR\nb3HFwMqiENOcm0Vgfuw643930wKBgQDheudkAU5fhorEwfA14iHf1h2ksHlpQp3G\noKj1H+o0QmYqs6KzqdV+9onMtBDBP4NI1KeV9mx3cMBzvaSnQs1PUFoyBlP6z1el\naRA1UxBS2FBdkNcsgfGFU7CcRxUlzK7bpgOeDo3WTMNP+MdMTj1clXAsSFx4ndNX\nNKF7QKtOmQKBgQCPrnQFimwv2qb1BaDEQXRJDaos4gc55QUOLAadrUqMDOkGqRLe\nU1rMl4QRRnnpZ6Od2cq4MTMuyEplpZ8dzS0kxYYaZ2QFDE9Bje/Mb815ZQ8TYAp8\npVtuYuThaTERachtAhZ4NdLvCTWM2iIJteKufmINPF7yMN5f6ktiv4qJawKBgCkp\ngqxjAKe3rAWXUf7ENWLjd63k+YUZwCvOkImPNfYsWPJasM0TqAHxh95y0Mw2iAT3\nrVBXGB4F21xFtpVCQLDF/nE7boFO8LUlpOvXKhe1nZY3JtDdN/Ya/RbKczXfU9yN\nRgPIrGP+x3kF9XwcnF8WeM/cteTfCwHUfdY+TAehAoGBAMpZEBXmekPzZSCMk024\nyLrICEaq7TcfVZlK4zoQg8koSxdHi3E7bG9JVHa5O5v63xjtIPgD14sxqU5ETndt\nA/gjoGD+lVr0WmkN9A2N+/GL4KOv4rp6o+OFazLWwEGy1ldQbl9d/Rd1Su0XaHJ+\n9kFk3Esm3iPAEFFxq8SlBaQA\n-----END PRIVATE KEY-----\n",
  "client_email": "firebase-adminsdk-4aiws@coccan.iam.gserviceaccount.com",
  "client_id": "101300136053304188174",
  "auth_uri": "https://accounts.google.com/o/oauth2/auth",
  "token_uri": "https://oauth2.googleapis.com/token",
  "auth_provider_x509_cert_url": "https://www.googleapis.com/oauth2/v1/certs",
  "client_x509_cert_url": "https://www.googleapis.com/robot/v1/metadata/x509/firebase-adminsdk-4aiws%40coccan.iam.gserviceaccount.com"
}
